Course_2/memory/memory.vcd
$date
	Thu Jan  8 01:17:19 2026
$end
$version
	Icarus Verilog
$end
$timescale
	1ps
$end
$scope module top $end
$var wire 4 ! addr [3:0] $end
$var wire 1 " clk $end
$var wire 8 # din [7:0] $end
$var wire 8 $ dout [7:0] $end
$var wire 1 % rst $end
$var wire 1 & wr $end
$var reg 8 ' temp [7:0] $end
$upscope $end
$enddefinitions $end
$comment Show the parameter values. $end
$dumpall
$end
#0
$dumpvars
b0 '
z&
1%
b0 $
bz #
1"
bz !
$end
#10000
0"
#20000
1"
#30000
0"
#40000
1"
#50000
0"
#60000
1"
#70000
0"
#80000
1"
#90000
0"
#100000
1&
b110 !
b1010011 #
bx $
bx '
1"
0%
#110000
0"
#120000
b1101 !
b10111101 #
1"
#130000
0"
#140000
1"
#150000
0"
#160000
b11 !
b100100 #
1"
#170000
0"
#180000
1"
#190000
0"
#200000
b101 !
b1110 #
1"
#210000
0"
#220000
1"
#230000
0"
#240000
b0 !
b11111 #
1"
#250000
0"
#260000
1"
#270000
0"
#280000
b1111 !
b11011100 #
1"
#290000
0"
#300000
1"
#310000
0"
#320000
b100 !
b100000 #
1"
#330000
0"
#340000
1"
#350000
0"
#360000
b1 !
b1101100 #
1"
#370000
0"
#380000
1"
#390000
0"
#400000
b101 !
b11001110 #
1"
#410000
0"
#420000
1"
#430000
0"
#440000
b10000010 #
1"
#450000
0"
#460000
1"
#470000
0"
#480000
b111 !
b1010111 #
1"
#490000
0"
#500000
1"
#510000
0"
#520000
b1 !
b1001011 #
1"
#530000
0"
#540000
1"
#550000
0"
#560000
b1111 !
b1100100 #
1"
#570000
0"
#580000
1"
#590000
0"
#600000
b1010 !
b100011 #
1"
#610000
0"
#620000
1"
#630000
0"
#640000
b110 !
b1100010 #
1"
#650000
0"
#660000
1"
#670000
0"
#680000
b1 !
0&
1"
#690000
0"
#700000
b1001011 $
b1001011 '
1"
#710000
0"
#720000
b111 !
1"
#730000
0"
#740000
b1010111 $
b1010111 '
1"
#750000
0"
#760000
b1010 !
1"
#770000
0"
#780000
b100011 $
b100011 '
1"
#790000
0"
#800000
b0 !
1"
#810000
0"
#820000
b11111 $
b11111 '
1"
#830000
0"
#840000
b100 !
1"
#850000
0"
#860000
b100000 $
b100000 '
1"
#870000
0"
#880000
b11 !
1"
#890000
0"
#900000
b100100 $
b100100 '
1"
#910000
0"
#920000
b1100 !
1"
#930000
0"
#940000
b0 $
b0 '
1"
#950000
0"
#960000
b1101 !
1"
#970000
0"
#980000
b10111101 $
b10111101 '
1"
#990000
0"
#1000000
b11 !
1"
#1010000
0"
#1020000
b100100 $
b100100 '
1"
#1030000
0"
#1040000
b101 !
1"
#1050000
0"
#1060000
b10000010 $
b10000010 '
1"
#1070000
0"
#1080000
b111 !
1"
#1090000
0"
#1100000
b1010111 $
b1010111 '
1"
#1110000
0"
#1120000
b1001 !
1"
#1130000
0"
#1140000
b0 $
b0 '
1"
#1150000
0"
#1160000
b101 !
1"
#1170000
0"
#1180000
b10000010 $
b10000010 '
1"
#1190000
0"
#1200000
b10 !
1"
#1210000
0"
#1220000
b0 $
b0 '
1"
#1230000
0"
#1240000
b111 !
1"
#1250000
0"
#1260000
b1010111 $
b1010111 '
1"
